<svg width="14" height="13" viewBox="0 0 14 13" fill="none" xmlns="http://www.w3.org/2000/svg">
<path d="M7 10.4479L11.326 13L10.178 8.19L14 4.95368L8.967 4.53632L7 0L5.033 4.53632L0 4.95368L3.822 8.19L2.674 13L7 10.4479Z" fill="#F4B263"/>
</svg>
